rtl/fsm_regbank/tb_fsm_ctrl.vcd
$date
	Mon Mar 23 15:59:34 2026
$end
$version
	Icarus Verilog
$end
$timescale
	1ps
$end
$scope module tb_fsm_ctrl $end
$var wire 3 ! current_state [2:0] $end
$var wire 1 " we_img_fsm $end
$var wire 1 # we_hidden $end
$var wire 2 $ status_out [1:0] $end
$var wire 4 % result_out [3:0] $end
$var wire 1 & mac_en $end
$var wire 1 ' mac_clr $end
$var wire 1 ( h_capture $end
$var wire 1 ) done_out $end
$var wire 32 * cycles_out [31:0] $end
$var wire 1 + bias_cycle $end
$var wire 1 , argmax_en $end
$var wire 17 - addr_w [16:0] $end
$var wire 10 . addr_img [9:0] $end
$var wire 7 / addr_hidden [6:0] $end
$var wire 7 0 addr_bias [6:0] $end
$var wire 11 1 addr_beta [10:0] $end
$var parameter 3 2 ARGMAX $end
$var parameter 3 3 CALC_HIDDEN $end
$var parameter 3 4 CALC_OUTPUT $end
$var parameter 3 5 DONE $end
$var parameter 3 6 ERROR $end
$var parameter 3 7 IDLE $end
$var parameter 3 8 LOAD_IMG $end
$var parameter 32 9 P_CLASSES $end
$var parameter 32 : P_NEURONS $end
$var parameter 32 ; P_PIXELS $end
$var reg 1 < argmax_done $end
$var reg 1 = clk $end
$var reg 4 > max_idx [3:0] $end
$var reg 1 ? overflow $end
$var reg 1 @ reset $end
$var reg 1 A rst_n $end
$var reg 1 B start $end
$var reg 1 C we_img $end
$var integer 32 D fail_count [31:0] $end
$var integer 32 E pass_count [31:0] $end
$scope module dut $end
$var wire 1 < argmax_done $end
$var wire 1 = clk $end
$var wire 4 F max_idx [3:0] $end
$var wire 1 ? overflow $end
$var wire 1 @ reset $end
$var wire 1 A rst_n $end
$var wire 1 B start $end
$var wire 1 C we_img $end
$var parameter 3 G ARGMAX $end
$var parameter 3 H CALC_HIDDEN $end
$var parameter 3 I CALC_OUTPUT $end
$var parameter 3 J DONE $end
$var parameter 3 K ERROR $end
$var parameter 3 L IDLE $end
$var parameter 3 M LOAD_IMG $end
$var parameter 32 N N_CLASSES $end
$var parameter 32 O N_NEURONS $end
$var parameter 32 P N_PIXELS $end
$var parameter 2 Q STATUS_BUSY $end
$var parameter 2 R STATUS_DONE $end
$var parameter 2 S STATUS_ERROR $end
$var parameter 2 T STATUS_IDLE $end
$var reg 11 U addr_beta [10:0] $end
$var reg 7 V addr_bias [6:0] $end
$var reg 7 W addr_hidden [6:0] $end
$var reg 10 X addr_img [9:0] $end
$var reg 17 Y addr_w [16:0] $end
$var reg 1 , argmax_en $end
$var reg 1 + bias_cycle $end
$var reg 3 Z current_state [2:0] $end
$var reg 32 [ cycles_out [31:0] $end
$var reg 1 ) done_out $end
$var reg 1 ( h_capture $end
$var reg 8 \ i [7:0] $end
$var reg 10 ] j [9:0] $end
$var reg 4 ^ k [3:0] $end
$var reg 1 ' mac_clr $end
$var reg 1 & mac_en $end
$var reg 3 _ next_state [2:0] $end
$var reg 4 ` result_out [3:0] $end
$var reg 2 a status_out [1:0] $end
$var reg 1 # we_hidden $end
$var reg 1 " we_img_fsm $end
$upscope $end
$scope begin check_cycles_freeze $end
$var reg 32 b cycles_at_done [31:0] $end
$upscope $end
$scope begin check_load $end
$var integer 32 c c [31:0] $end
$upscope $end
$scope task check1 $end
$var reg 1 d exp $end
$var reg 1 e got $end
$var reg 128 f label [127:0] $end
$var reg 64 g tc_num [63:0] $end
$upscope $end
$scope task check_state $end
$var reg 3 h exp [2:0] $end
$var reg 3 i got [2:0] $end
$var reg 128 j label [127:0] $end
$var reg 64 k tc_num [63:0] $end
$upscope $end
$scope task check_val $end
$var reg 32 l exp [31:0] $end
$var reg 32 m got [31:0] $end
$var reg 128 n label [127:0] $end
$var reg 64 o tc_num [63:0] $end
$upscope $end
$scope task do_reset $end
$upscope $end
$scope task tick $end
$var integer 32 p kk [31:0] $end
$var integer 32 q n [31:0] $end
$upscope $end
$scope task wait_for_state $end
$var reg 3 r target [2:0] $end
$var integer 32 s timeout [31:0] $end
$upscope $end
$upscope $end
$enddefinitions $end
$comment Show the parameter values. $end
$dumpall
b0 T
b11 S
b10 R
b1 Q
b1000 P
b100 O
b11 N
b1 M
b0 L
b110 K
b101 J
b11 I
b10 H
b100 G
b1000 ;
b100 :
b11 9
b1 8
b0 7
b110 6
b101 5
b11 4
b10 3
b100 2
$end
#0
$dumpvars
bx s
bx r
bx q
bx p
bx o
bx n
bx m
bx l
bx k
bx j
bx i
bx h
bx g
bx f
xe
xd
bx c
bx b
bx a
bx `
b0 _
bx ^
bx ]
bx \
bx [
bx Z
bx Y
bx X
bx W
bx V
bx U
b0 F
b0 E
b0 D
0C
0B
1A
0@
0?
b0 >
0=
0<
bx 1
bx 0
bx /
bx .
bx -
x,
x+
bx *
x)
x(
x'
x&
bx %
bx $
x#
x"
bx !
$end
#3000
b0 $
b0 a
0,
0(
0+
0'
0&
b0 1
b0 U
b0 0
b0 V
b0 -
b0 Y
b0 /
b0 W
0#
b0 .
b0 X
0"
0)
b0 %
b0 `
b0 *
b0 [
b0 ^
b0 ]
b0 \
b0 !
b0 Z
0A
#5000
1=
#10000
0=
#15000
1=
#16000
1A
#20000
0=
#25000
1=
#26000
0A
0d
0e
b11000100110100101100001011100110101111101100011011110010110001101101100011001010011110100110000 f
b1 g
b110 E
b11001010111001101110100011000010110010001101111 j
b0 h
b0 i
b1 k
#30000
0=
#35000
1=
#40000
0=
#45000
1=
#46000
1A
#50000
0=
#55000
1=
#56000
b0 p
b1010 q
#60000
0=
#65000
b1 p
1=
#70000
0=
#75000
b10 p
1=
#80000
0=
#85000
b11 p
1=
#90000
0=
#95000
b100 p
1=
#100000
0=
#105000
b101 p
1=
#110000
0=
#115000
b110 p
1=
#120000
0=
#125000
b111 p
1=
#130000
0=
#135000
b1000 p
1=
#140000
0=
#145000
b1001 p
1=
#150000
0=
#155000
0A
b111 E
b110000101110000011011110111001101011111001100010011000001011111011000110110100101100011011011000110111101110011 j
b10 k
b1010 p
1=
#160000
0=
#165000
1=
#170000
0=
#175000
1=
#176000
1A
#180000
0=
#185000
1=
#190000
0=
#195000
1=
#196000
b1 _
1B
#200000
0=
#205000
b1 $
b1 a
1"
b1 !
b1 Z
1=
#206000
b0 $
b0 a
0"
b0 _
b0 !
b0 Z
0A
b1000 E
b1100001011100000110111101110011010111110111001101110100011000010111001001110100 j
b1 h
b1 i
b11 k
0B
#210000
0=
#215000
1=
#220000
0=
#225000
1=
#226000
1A
#230000
0=
#235000
1=
#240000
0=
#245000
1=
#246000
b1 _
1B
#250000
0=
#255000
b1 $
b1 a
1"
b1 !
b1 Z
1=
#256000
b1010 E
1d
1e
b1110111011001010101111101101001011011010110011101011111011001100111001101101101 f
b100 g
b0 c
0B
#260000
0=
#265000
b1 $
b1 a
b1 -
b1 Y
b1 .
b1 X
1"
b1 *
b1 [
b1 ]
1=
#266000
b1100 E
b1 c
#270000
0=
#275000
b1 $
b1 a
b10 -
b10 Y
b10 .
b10 X
1"
b10 *
b10 [
b10 ]
1=
#276000
b1110 E
b10 c
#280000
0=
#285000
b1 $
b1 a
b11 -
b11 Y
b11 .
b11 X
1"
b11 *
b11 [
b11 ]
1=
#286000
b10000 E
b11 c
#290000
0=
#295000
b1 $
b1 a
b100 -
b100 Y
b100 .
b100 X
1"
b100 *
b100 [
b100 ]
1=
#296000
b0 $
b0 a
b0 -
b0 Y
b0 .
b0 X
0"
b0 _
b0 *
b0 [
b0 ]
b0 !
b0 Z
0A
b100 c
#300000
0=
#305000
1=
#310000
0=
#315000
1=
#316000
1A
#320000
0=
#325000
1=
#330000
0=
#335000
1=
#336000
b1 _
1B
#340000
0=
#345000
b1 $
b1 a
1"
b1 !
b1 Z
1=
#346000
b0 p
b111 q
0B
#350000
0=
#355000
b1 $
b1 a
b1 -
b1 Y
b1 .
b1 X
1"
b1 *
b1 [
b1 ]
b1 p
1=
#360000
0=
#365000
b1 $
b1 a
b10 -
b10 Y
b10 .
b10 X
1"
b10 *
b10 [
b10 ]
b10 p
1=
#370000
0=
#375000
b1 $
b1 a
b11 -
b11 Y
b11 .
b11 X
1"
b11 *
b11 [
b11 ]
b11 p
1=
#380000
0=
#385000
b1 $
b1 a
b100 -
b100 Y
b100 .
b100 X
1"
b100 *
b100 [
b100 ]
b100 p
1=
#390000
0=
#395000
b1 $
b1 a
b101 -
b101 Y
b101 .
b101 X
1"
b101 *
b101 [
b101 ]
b101 p
1=
#400000
0=
#405000
b1 $
b1 a
b110 -
b110 Y
b110 .
b110 X
1"
b110 *
b110 [
b110 ]
b110 p
1=
#410000
0=
#415000
b1 $
b1 a
b111 -
b111 Y
b111 .
b111 X
1"
b10 _
b111 *
b111 [
b111 ]
b10001 E
b11101010110110001110100011010010110110101101111010111110111000001101001011110000110010101101100010111110110101000110111 j
b101 k
b111 p
1=
#420000
0=
#425000
b1 $
b1 a
b0 -
b0 Y
b0 .
b0 X
0"
b1000 *
b1000 [
b0 ]
b10 !
b10 Z
1=
#426000
0d
0e
b1100011011011000110010100111101001100000010000001110111011000010111001001101101011101010111000000100000011010100011110100110000 f
b110 g
b110 k
b10110 E
b11001010111001101110100011000010110010001101111 j
b10 h
b10 i
#430000
0=
#435000
1&
b1 $
b1 a
b1 -
b1 Y
b1 .
b1 X
b1001 *
b1001 [
b1 ]
1=
#436000
b0 p
b11001 E
0d
0e
b1100010011010010110000101110011010111110110001101111001011000110110110001100101001111010011000000100000011010100011110100110001 f
#440000
0=
#445000
b1 $
b1 a
1&
b10 -
b10 Y
b10 .
b10 X
b1010 *
b1010 [
b10 ]
b1 p
1=
#450000
0=
#455000
b1 $
b1 a
1&
b11 -
b11 Y
b11 .
b11 X
b1011 *
b1011 [
b11 ]
b10 p
1=
#460000
0=
#465000
b1 $
b1 a
1&
b100 -
b100 Y
b100 .
b100 X
b1100 *
b1100 [
b100 ]
b11 p
1=
#470000
0=
#475000
b1 $
b1 a
1&
b101 -
b101 Y
b101 .
b101 X
b1101 *
b1101 [
b101 ]
b100 p
1=
#480000
0=
#485000
b1 $
b1 a
1&
b110 -
b110 Y
b110 .
b110 X
b1110 *
b1110 [
b110 ]
b101 p
1=
#490000
0=
#495000
b1 $
b1 a
1&
b111 -
b111 Y
b111 .
b111 X
b1111 *
b1111 [
b111 ]
b110 p
1=
#500000
0=
#505000
b1 $
b1 a
1&
b1000 -
b1000 Y
b1000 .
b1000 X
b10000 *
b10000 [
b1000 ]
b111 p
1=
#510000
0=
#515000
1+
b1 $
b1 a
1&
b1001 -
b1001 Y
b1001 .
b1001 X
b10001 *
b10001 [
b1001 ]
1=
#516000
b11101 E
0d
0e
b1110111011001010101111101101000011010010110010001100100011001010110111000111101001100000010000001100010011010010110000101110011 f
b111 g
#520000
0=
#525000
1'
1(
1#
b1 $
b1 a
0+
0&
b1010 -
b1010 Y
b1010 .
b1010 X
b10010 *
b10010 [
b1010 ]
1=
#526000
b100010 E
0d
0e
b1011111011000110111100101100011011011000110010100111101001100000010000001100011011000010111000001110100011101010111001001100101 f
#530000
0=
#535000
b1 $
b1 a
0(
0'
b1010 1
b1010 U
b1 0
b1 V
b10000000000 -
b10000000000 Y
b1 /
b1 W
0#
b0 .
b0 X
b10011 *
b10011 [
b1 \
b0 ]
1=
#536000
b0 s
b11 r
b100101 E
b11011010110000101100011010111110110010101101110001111010011000000100000011101110110000101110010011011010111010101110000 f
#540000
0=
#545000
1&
b1 $
b1 a
b10000000001 -
b10000000001 Y
b1 .
b1 X
b10100 *
b10100 [
b1 ]
1=
#546000
b1 s
#550000
0=
#555000
b1 $
b1 a
1&
b10000000010 -
b10000000010 Y
b10 .
b10 X
b10101 *
b10101 [
b10 ]
1=
#556000
b10 s
#560000
0=
#565000
b1 $
b1 a
1&
b10000000011 -
b10000000011 Y
b11 .
b11 X
b10110 *
b10110 [
b11 ]
1=
#566000
b11 s
#570000
0=
#575000
b1 $
b1 a
1&
b10000000100 -
b10000000100 Y
b100 .
b100 X
b10111 *
b10111 [
b100 ]
1=
#576000
b100 s
#580000
0=
#585000
b1 $
b1 a
1&
b10000000101 -
b10000000101 Y
b101 .
b101 X
b11000 *
b11000 [
b101 ]
1=
#586000
b101 s
#590000
0=
#595000
b1 $
b1 a
1&
b10000000110 -
b10000000110 Y
b110 .
b110 X
b11001 *
b11001 [
b110 ]
1=
#596000
b110 s
#600000
0=
#605000
b1 $
b1 a
1&
b10000000111 -
b10000000111 Y
b111 .
b111 X
b11010 *
b11010 [
b111 ]
1=
#606000
b111 s
#610000
0=
#615000
b1 $
b1 a
1&
b10000001000 -
b10000001000 Y
b1000 .
b1000 X
b11011 *
b11011 [
b1000 ]
1=
#616000
b1000 s
#620000
0=
#625000
1+
b1 $
b1 a
1&
b10000001001 -
b10000001001 Y
b1001 .
b1001 X
b11100 *
b11100 [
b1001 ]
1=
#626000
b1001 s
#630000
0=
#635000
1'
1(
1#
b1 $
b1 a
0+
0&
b10000001010 -
b10000001010 Y
b1010 .
b1010 X
b11101 *
b11101 [
b1010 ]
1=
#636000
b1010 s
#640000
0=
#645000
b1 $
b1 a
0(
0'
b10100 1
b10100 U
b10 0
b10 V
b100000000000 -
b100000000000 Y
b10 /
b10 W
0#
b0 .
b0 X
b11110 *
b11110 [
b10 \
b0 ]
1=
#646000
b1011 s
#650000
0=
#655000
1&
b1 $
b1 a
b100000000001 -
b100000000001 Y
b1 .
b1 X
b11111 *
b11111 [
b1 ]
1=
#656000
b1100 s
#660000
0=
#665000
b1 $
b1 a
1&
b100000000010 -
b100000000010 Y
b10 .
b10 X
b100000 *
b100000 [
b10 ]
1=
#666000
b1101 s
#670000
0=
#675000
b1 $
b1 a
1&
b100000000011 -
b100000000011 Y
b11 .
b11 X
b100001 *
b100001 [
b11 ]
1=
#676000
b1110 s
#680000
0=
#685000
b1 $
b1 a
1&
b100000000100 -
b100000000100 Y
b100 .
b100 X
b100010 *
b100010 [
b100 ]
1=
#686000
b1111 s
#690000
0=
#695000
b1 $
b1 a
1&
b100000000101 -
b100000000101 Y
b101 .
b101 X
b100011 *
b100011 [
b101 ]
1=
#696000
b10000 s
#700000
0=
#705000
b1 $
b1 a
1&
b100000000110 -
b100000000110 Y
b110 .
b110 X
b100100 *
b100100 [
b110 ]
1=
#706000
b10001 s
#710000
0=
#715000
b1 $
b1 a
1&
b100000000111 -
b100000000111 Y
b111 .
b111 X
b100101 *
b100101 [
b111 ]
1=
#716000
b10010 s
#720000
0=
#725000
b1 $
b1 a
1&
b100000001000 -
b100000001000 Y
b1000 .
b1000 X
b100110 *
b100110 [
b1000 ]
1=
#726000
b10011 s
#730000
0=
#735000
1+
b1 $
b1 a
1&
b100000001001 -
b100000001001 Y
b1001 .
b1001 X
b100111 *
b100111 [
b1001 ]
1=
#736000
b10100 s
#740000
0=
#745000
1'
1(
1#
b1 $
b1 a
0+
0&
b100000001010 -
b100000001010 Y
b1010 .
b1010 X
b101000 *
b101000 [
b1010 ]
1=
#746000
b10101 s
#750000
0=
#755000
b1 $
b1 a
0(
0'
b11110 1
b11110 U
b11 0
b11 V
b110000000000 -
b110000000000 Y
b11 /
b11 W
0#
b0 .
b0 X
b101001 *
b101001 [
b11 \
b0 ]
1=
#756000
b10110 s
#760000
0=
#765000
1&
b1 $
b1 a
b110000000001 -
b110000000001 Y
b1 .
b1 X
b101010 *
b101010 [
b1 ]
1=
#766000
b10111 s
#770000
0=
#775000
b1 $
b1 a
1&
b110000000010 -
b110000000010 Y
b10 .
b10 X
b101011 *
b101011 [
b10 ]
1=
#776000
b11000 s
#780000
0=
#785000
b1 $
b1 a
1&
b110000000011 -
b110000000011 Y
b11 .
b11 X
b101100 *
b101100 [
b11 ]
1=
#786000
b11001 s
#790000
0=
#795000
b1 $
b1 a
1&
b110000000100 -
b110000000100 Y
b100 .
b100 X
b101101 *
b101101 [
b100 ]
1=
#796000
b11010 s
#800000
0=
#805000
b1 $
b1 a
1&
b110000000101 -
b110000000101 Y
b101 .
b101 X
b101110 *
b101110 [
b101 ]
1=
#806000
b11011 s
#810000
0=
#815000
b1 $
b1 a
1&
b110000000110 -
b110000000110 Y
b110 .
b110 X
b101111 *
b101111 [
b110 ]
1=
#816000
b11100 s
#820000
0=
#825000
b1 $
b1 a
1&
b110000000111 -
b110000000111 Y
b111 .
b111 X
b110000 *
b110000 [
b111 ]
1=
#826000
b11101 s
#830000
0=
#835000
b1 $
b1 a
1&
b110000001000 -
b110000001000 Y
b1000 .
b1000 X
b110001 *
b110001 [
b1000 ]
1=
#836000
b11110 s
#840000
0=
#845000
1+
b1 $
b1 a
1&
b110000001001 -
b110000001001 Y
b1001 .
b1001 X
b110010 *
b110010 [
b1001 ]
1=
#846000
b11111 s
#850000
0=
#855000
1'
1(
1#
b1 $
b1 a
0+
0&
b110000001010 -
b110000001010 Y
b1010 .
b1010 X
b11 _
b110011 *
b110011 [
b1010 ]
1=
#856000
b100000 s
#860000
0=
#865000
b1 $
b1 a
0(
0'
b0 1
b0 U
b0 0
b0 V
b0 -
b0 Y
b0 /
b0 W
0#
b0 .
b0 X
b110100 *
b110100 [
b0 \
b0 ]
b11 !
b11 Z
1=
#866000
b1011111011001010110111000111101001100000010000001110111011000010111001001101101011101010111000000100000011010010011110100110000 f
b1001 g
b101000 E
b11101000111001001100001011011100111001101101001011000110110000101101111 j
b11 h
b11 i
b1000 k
b100001 s
#870000
0=
#875000
1&
b1 $
b1 a
b1010 1
b1010 U
b1 0
b1 V
b10000000000 -
b10000000000 Y
b1 /
b1 W
b110101 *
b110101 [
b1 \
1=
#876000
b0 s
b100 r
b101011 E
0d
0e
b1101101011000010110001101011111011000110110110001110010001111010011000000100000011010010011110100110001 f
#880000
0=
#885000
b1 $
b1 a
1&
b10100 1
b10100 U
b10 0
b10 V
b100000000000 -
b100000000000 Y
b10 /
b10 W
b110110 *
b110110 [
b10 \
1=
#886000
b1 s
#890000
0=
#895000
b1 $
b1 a
1&
b11110 1
b11110 U
b11 0
b11 V
b110000000000 -
b110000000000 Y
b11 /
b11 W
b110111 *
b110111 [
b11 \
1=
#896000
b10 s
#900000
0=
#905000
b1 $
b1 a
1&
b101000 1
b101000 U
b100 0
b100 V
b1000000000000 -
b1000000000000 Y
b100 /
b100 W
b111000 *
b111000 [
b100 \
1=
#906000
b11 s
#910000
0=
#915000
1'
b1 $
b1 a
0&
b110010 1
b110010 U
b101 0
b101 V
b1010000000000 -
b1010000000000 Y
b101 /
b101 W
b111001 *
b111001 [
b101 \
1=
#916000
b100 s
#920000
0=
#925000
b1 $
b1 a
0'
b1 1
b1 U
b0 0
b0 V
b0 -
b0 Y
b0 /
b0 W
b111010 *
b111010 [
b1 ^
b0 \
1=
#926000
b101 s
#930000
0=
#935000
1&
b1 $
b1 a
b1011 1
b1011 U
b1 0
b1 V
b10000000000 -
b10000000000 Y
b1 /
b1 W
b111011 *
b111011 [
b1 \
1=
#936000
b110 s
#940000
0=
#945000
b1 $
b1 a
1&
b10101 1
b10101 U
b10 0
b10 V
b100000000000 -
b100000000000 Y
b10 /
b10 W
b111100 *
b111100 [
b10 \
1=
#946000
b111 s
#950000
0=
#955000
b1 $
b1 a
1&
b11111 1
b11111 U
b11 0
b11 V
b110000000000 -
b110000000000 Y
b11 /
b11 W
b111101 *
b111101 [
b11 \
1=
#956000
b1000 s
#960000
0=
#965000
b1 $
b1 a
1&
b101001 1
b101001 U
b100 0
b100 V
b1000000000000 -
b1000000000000 Y
b100 /
b100 W
b111110 *
b111110 [
b100 \
1=
#966000
b1001 s
#970000
0=
#975000
1'
b1 $
b1 a
0&
b110011 1
b110011 U
b101 0
b101 V
b1010000000000 -
b1010000000000 Y
b101 /
b101 W
b111111 *
b111111 [
b101 \
1=
#976000
b1010 s
#980000
0=
#985000
b1 $
b1 a
0'
b10 1
b10 U
b0 0
b0 V
b0 -
b0 Y
b0 /
b0 W
b1000000 *
b1000000 [
b10 ^
b0 \
1=
#986000
b1011 s
#990000
0=
#995000
1&
b1 $
b1 a
b1100 1
b1100 U
b1 0
b1 V
b10000000000 -
b10000000000 Y
b1 /
b1 W
b1000001 *
b1000001 [
b1 \
1=
#996000
b1100 s
#1000000
0=
#1005000
b1 $
b1 a
1&
b10110 1
b10110 U
b10 0
b10 V
b100000000000 -
b100000000000 Y
b10 /
b10 W
b1000010 *
b1000010 [
b10 \
1=
#1006000
b1101 s
#1010000
0=
#1015000
b1 $
b1 a
1&
b100000 1
b100000 U
b11 0
b11 V
b110000000000 -
b110000000000 Y
b11 /
b11 W
b1000011 *
b1000011 [
b11 \
1=
#1016000
b1110 s
#1020000
0=
#1025000
b1 $
b1 a
1&
b101010 1
b101010 U
b100 0
b100 V
b1000000000000 -
b1000000000000 Y
b100 /
b100 W
b1000100 *
b1000100 [
b100 \
1=
#1026000
b1111 s
#1030000
0=
#1035000
1'
b1 $
b1 a
0&
b110100 1
b110100 U
b101 0
b101 V
b1010000000000 -
b1010000000000 Y
b101 /
b101 W
b100 _
b1000101 *
b1000101 [
b101 \
1=
#1036000
b10000 s
#1040000
0=
#1045000
1,
b1 $
b1 a
0'
b0 1
b0 U
b0 0
b0 V
b0 -
b0 Y
b0 /
b0 W
b1000110 *
b1000110 [
b0 ^
b0 \
b100 !
b100 Z
1=
#1046000
1d
1e
b110000101110010011001110110110101100001011110000101111101100101011011100011110100110001 f
b1010 g
b101101 E
b100 h
b100 i
b1010 k
b10001 s
#1050000
0=
#1055000
b1000111 *
b1000111 [
1=
#1056000
b101 _
b111 >
b111 F
1<
#1060000
0=
#1065000
b10 $
b10 a
0,
b0 _
b1001000 *
b1001000 [
1)
b111 %
b111 `
b101 !
b101 Z
1=
#1066000
b0 _
b111 l
b111 m
b1110010011001010111001101110101011011000111010001011111011011110111010101110100 n
b1100 o
b1100100011011110110111001100101010111110110111101110101011101000011110100110001 f
b1100 g
b110001 E
b101 h
b101 i
b1011 k
0<
#1070000
0=
#1075000
b0 $
b0 a
0)
b0 !
b0 Z
1=
#1076000
b0 %
b0 `
b0 *
b0 [
0A
b110010 E
b11000010111000001101111011100110101111101100100011011110110111001100101 j
b0 h
b0 i
b1101 k
#1080000
0=
#1085000
1=
#1090000
0=
#1095000
1=
#1096000
1A
#1100000
0=
#1105000
1=
#1110000
0=
#1115000
1=
#1116000
b1 _
1B
#1120000
0=
#1125000
b1 $
b1 a
1"
b1 !
b1 Z
1=
#1126000
b0 s
b10 r
0B
#1130000
0=
#1135000
b1 $
b1 a
b1 -
b1 Y
b1 .
b1 X
1"
b1 *
b1 [
b1 ]
1=
#1136000
b1 s
#1140000
0=
#1145000
b1 $
b1 a
b10 -
b10 Y
b10 .
b10 X
1"
b10 *
b10 [
b10 ]
1=
#1146000
b10 s
#1150000
0=
#1155000
b1 $
b1 a
b11 -
b11 Y
b11 .
b11 X
1"
b11 *
b11 [
b11 ]
1=
#1156000
b11 s
#1160000
0=
#1165000
b1 $
b1 a
b100 -
b100 Y
b100 .
b100 X
1"
b100 *
b100 [
b100 ]
1=
#1166000
b100 s
#1170000
0=
#1175000
b1 $
b1 a
b101 -
b101 Y
b101 .
b101 X
1"
b101 *
b101 [
b101 ]
1=
#1176000
b101 s
#1180000
0=
#1185000
b1 $
b1 a
b110 -
b110 Y
b110 .
b110 X
1"
b110 *
b110 [
b110 ]
1=
#1186000
b110 s
#1190000
0=
#1195000
b1 $
b1 a
b111 -
b111 Y
b111 .
b111 X
1"
b10 _
b111 *
b111 [
b111 ]
1=
#1196000
b111 s
#1200000
0=
#1205000
b1 $
b1 a
b0 -
b0 Y
b0 .
b0 X
0"
b1000 *
b1000 [
b0 ]
b10 !
b10 Z
1=
#1206000
b1000 s
#1210000
0=
#1215000
1&
b1 $
b1 a
b1 -
b1 Y
b1 .
b1 X
b1001 *
b1001 [
b1 ]
1=
#1216000
b110 _
1?
#1220000
0=
#1225000
b11 $
b11 a
0&
b10 -
b10 Y
b10 .
b10 X
b1010 *
b1010 [
b10 ]
b110 !
b110 Z
1=
#1226000
b110100 E
b1100001011100000110111101110011010111110110111101110110011001010111001001100110011011000110111101110111 j
b110 h
b110 i
b1110 k
0?
#1230000
0=
#1235000
b1011 *
b1011 [
1=
#1236000
1@
#1240000
0=
#1245000
b0 $
b0 a
b0 -
b0 Y
b0 .
b0 X
b0 _
b0 *
b0 [
b0 ]
b0 !
b0 Z
1=
#1246000
0A
b110101 E
b1100001011100000110111101110011010111110111001001100101011100110110010101110100 j
b0 h
b0 i
b1111 k
0@
#1250000
0=
#1255000
1=
#1260000
0=
#1265000
1=
#1266000
1A
#1270000
0=
#1275000
1=
#1276000
b110110 E
b0 l
b0 m
b110001101111001011000110110110001100101011100110101111101101001011001000110110001100101 n
b10000 o
#1280000
0=
#1285000
1=
#1286000
b1 _
1B
#1290000
0=
#1295000
b1 $
b1 a
1"
b1 !
b1 Z
1=
#1296000
b0 p
b1010 q
0B
#1300000
0=
#1305000
b1 $
b1 a
b1 -
b1 Y
b1 .
b1 X
1"
b1 *
b1 [
b1 ]
b1 p
1=
#1310000
0=
#1315000
b1 $
b1 a
b10 -
b10 Y
b10 .
b10 X
1"
b10 *
b10 [
b10 ]
b10 p
1=
#1320000
0=
#1325000
b1 $
b1 a
b11 -
b11 Y
b11 .
b11 X
1"
b11 *
b11 [
b11 ]
b11 p
1=
#1330000
0=
#1335000
b1 $
b1 a
b100 -
b100 Y
b100 .
b100 X
1"
b100 *
b100 [
b100 ]
b100 p
1=
#1340000
0=
#1345000
b1 $
b1 a
b101 -
b101 Y
b101 .
b101 X
1"
b101 *
b101 [
b101 ]
b101 p
1=
#1350000
0=
#1355000
b1 $
b1 a
b110 -
b110 Y
b110 .
b110 X
1"
b110 *
b110 [
b110 ]
b110 p
1=
#1360000
0=
#1365000
b1 $
b1 a
b111 -
b111 Y
b111 .
b111 X
1"
b10 _
b111 *
b111 [
b111 ]
b111 p
1=
#1370000
0=
#1375000
b1 $
b1 a
b0 -
b0 Y
b0 .
b0 X
0"
b1000 *
b1000 [
b0 ]
b10 !
b10 Z
b1000 p
1=
#1380000
0=
#1385000
1&
b1 $
b1 a
b1 -
b1 Y
b1 .
b1 X
b1001 *
b1001 [
b1 ]
b1001 p
1=
#1390000
0=
#1395000
b1 $
b1 a
1&
b10 -
b10 Y
b10 .
b10 X
b1010 *
b1010 [
b10 ]
b0 s
b100 r
b110111 E
b1010 p
1=
#1400000
0=
#1405000
b1 $
b1 a
1&
b11 -
b11 Y
b11 .
b11 X
b1011 *
b1011 [
b11 ]
1=
#1406000
b1 s
#1410000
0=
#1415000
b1 $
b1 a
1&
b100 -
b100 Y
b100 .
b100 X
b1100 *
b1100 [
b100 ]
1=
#1416000
b10 s
#1420000
0=
#1425000
b1 $
b1 a
1&
b101 -
b101 Y
b101 .
b101 X
b1101 *
b1101 [
b101 ]
1=
#1426000
b11 s
#1430000
0=
#1435000
b1 $
b1 a
1&
b110 -
b110 Y
b110 .
b110 X
b1110 *
b1110 [
b110 ]
1=
#1436000
b100 s
#1440000
0=
#1445000
b1 $
b1 a
1&
b111 -
b111 Y
b111 .
b111 X
b1111 *
b1111 [
b111 ]
1=
#1446000
b101 s
#1450000
0=
#1455000
b1 $
b1 a
1&
b1000 -
b1000 Y
b1000 .
b1000 X
b10000 *
b10000 [
b1000 ]
1=
#1456000
b110 s
#1460000
0=
#1465000
1+
b1 $
b1 a
1&
b1001 -
b1001 Y
b1001 .
b1001 X
b10001 *
b10001 [
b1001 ]
1=
#1466000
b111 s
#1470000
0=
#1475000
1'
1(
1#
b1 $
b1 a
0+
0&
b1010 -
b1010 Y
b1010 .
b1010 X
b10010 *
b10010 [
b1010 ]
1=
#1476000
b1000 s
#1480000
0=
#1485000
b1 $
b1 a
0(
0'
b1010 1
b1010 U
b1 0
b1 V
b10000000000 -
b10000000000 Y
b1 /
b1 W
0#
b0 .
b0 X
b10011 *
b10011 [
b1 \
b0 ]
1=
#1486000
b1001 s
#1490000
0=
#1495000
1&
b1 $
b1 a
b10000000001 -
b10000000001 Y
b1 .
b1 X
b10100 *
b10100 [
b1 ]
1=
#1496000
b1010 s
#1500000
0=
#1505000
b1 $
b1 a
1&
b10000000010 -
b10000000010 Y
b10 .
b10 X
b10101 *
b10101 [
b10 ]
1=
#1506000
b1011 s
#1510000
0=
#1515000
b1 $
b1 a
1&
b10000000011 -
b10000000011 Y
b11 .
b11 X
b10110 *
b10110 [
b11 ]
1=
#1516000
b1100 s
#1520000
0=
#1525000
b1 $
b1 a
1&
b10000000100 -
b10000000100 Y
b100 .
b100 X
b10111 *
b10111 [
b100 ]
1=
#1526000
b1101 s
#1530000
0=
#1535000
b1 $
b1 a
1&
b10000000101 -
b10000000101 Y
b101 .
b101 X
b11000 *
b11000 [
b101 ]
1=
#1536000
b1110 s
#1540000
0=
#1545000
b1 $
b1 a
1&
b10000000110 -
b10000000110 Y
b110 .
b110 X
b11001 *
b11001 [
b110 ]
1=
#1546000
b1111 s
#1550000
0=
#1555000
b1 $
b1 a
1&
b10000000111 -
b10000000111 Y
b111 .
b111 X
b11010 *
b11010 [
b111 ]
1=
#1556000
b10000 s
#1560000
0=
#1565000
b1 $
b1 a
1&
b10000001000 -
b10000001000 Y
b1000 .
b1000 X
b11011 *
b11011 [
b1000 ]
1=
#1566000
b10001 s
#1570000
0=
#1575000
1+
b1 $
b1 a
1&
b10000001001 -
b10000001001 Y
b1001 .
b1001 X
b11100 *
b11100 [
b1001 ]
1=
#1576000
b10010 s
#1580000
0=
#1585000
1'
1(
1#
b1 $
b1 a
0+
0&
b10000001010 -
b10000001010 Y
b1010 .
b1010 X
b11101 *
b11101 [
b1010 ]
1=
#1586000
b10011 s
#1590000
0=
