utils/tb_datapath.vcd
$date
	Sat Mar 14 16:07:52 2026
$end
$version
	Icarus Verilog
$end
$timescale
	1ps
$end
$scope module tb_datapath $end
$var wire 16 ! pwl_y_out [15:0] $end
$var wire 16 " argmax_max_val [15:0] $end
$var wire 4 # argmax_max_idx [3:0] $end
$var wire 1 $ argmax_done $end
$var parameter 32 % CLK_HALF $end
$var parameter 4 & EXPECTED_PRED $end
$var parameter 32 ' N_HIDDEN $end
$var parameter 32 ( N_OUTPUT $end
$var reg 1 ) argmax_enable $end
$var reg 4 * argmax_k_in [3:0] $end
$var reg 1 + argmax_start $end
$var reg 16 , argmax_y_in [15:0] $end
$var reg 1 - clk $end
$var reg 16 . pwl_x_in [15:0] $end
$var reg 1 / rst_n $end
$var integer 32 0 i [31:0] $end
$var integer 32 1 pred_result [31:0] $end
$var integer 32 2 pwl_diff [31:0] $end
$var integer 32 3 pwl_fail [31:0] $end
$var integer 32 4 pwl_pass [31:0] $end
$scope function q412_to_float $end
$var reg 16 5 val [15:0] $end
$upscope $end
$scope module u_argmax $end
$var wire 1 - clk $end
$var wire 1 ) enable $end
$var wire 4 6 k_in [3:0] $end
$var wire 1 / rst_n $end
$var wire 1 + start $end
$var wire 16 7 y_in [15:0] $end
$var parameter 16 8 MIN_Q412 $end
$var reg 4 9 cmp_count [3:0] $end
$var reg 1 $ done $end
$var reg 4 : max_idx [3:0] $end
$var reg 16 ; max_val [15:0] $end
$upscope $end
$scope module u_pwl $end
$var wire 16 < slope1_term [15:0] $end
$var wire 16 = x_in [15:0] $end
$var wire 16 > y_seg1 [15:0] $end
$var wire 16 ? y_seg5 [15:0] $end
$var wire 16 @ y_seg4 [15:0] $end
$var wire 16 A y_seg3 [15:0] $end
$var wire 16 B y_seg2 [15:0] $end
$var wire 16 C y_pos [15:0] $end
$var wire 16 D y_out [15:0] $end
$var wire 16 E x_shr9 [15:0] $end
$var wire 16 F x_shr4 [15:0] $end
$var wire 16 G x_shr3 [15:0] $end
$var wire 16 H x_shr2 [15:0] $end
$var wire 16 I x_shr1 [15:0] $end
$var wire 1 J x_neg $end
$var wire 16 K x_abs [15:0] $end
$var wire 16 L slope5_term [15:0] $end
$var wire 16 M slope4_term [15:0] $end
$var wire 16 N slope3_term [15:0] $end
$var wire 16 O slope2_term [15:0] $end
$var parameter 16 P B2 $end
$var parameter 16 Q B3 $end
$var parameter 16 R B4 $end
$var parameter 16 S B5 $end
$var parameter 16 T NEG_2 $end
$var parameter 16 U NEG_4 $end
$var parameter 16 V NEG_ONE $end
$var parameter 16 W POS_0P25 $end
$var parameter 16 X POS_0P5 $end
$var parameter 16 Y POS_1 $end
$var parameter 16 Z POS_1P5 $end
$var parameter 16 [ POS_2 $end
$var parameter 16 \ POS_4 $end
$var parameter 16 ] POS_ONE $end
$upscope $end
$scope begin teste3_scores $end
$var integer 32 ^ j [31:0] $end
$upscope $end
$scope begin teste4 $end
$var integer 32 _ j [31:0] $end
$upscope $end
$upscope $end
$enddefinitions $end
$comment Show the parameter values. $end
$dumpall
b1000000000000 ]
b100000000000000 \
b10000000000000 [
b1100000000000 Z
b1000000000000 Y
b100000000000 X
b10000000000 W
b1111000000000000 V
b1100000000000000 U
b1110000000000000 T
b101101110111 S
b11101001010 R
b1010000000 Q
b1111000 P
b1000000000000000 8
b1010 (
b10000000 '
b10 &
b101 %
$end
#0
$dumpvars
bx _
bx ^
b0 O
b0 N
b0 M
b0 L
b0 K
0J
b0 I
b0 H
b0 G
b0 F
b0 E
b0 D
b0 C
b1111000 B
b1010000000 A
b11101001010 @
b101101110111 ?
b0 >
b0 =
b0 <
b1000000000000000 ;
b0 :
b0 9
b0 7
b0 6
bx 5
b0 4
b0 3
bx 2
bx 1
bx 0
0/
b0 .
0-
b0 ,
0+
b0 *
0)
0$
b0 #
b1000000000000000 "
b0 !
$end
#5000
1-
#6000
1/
#10000
0-
#15000
1-
#16000
b100011101 !
b100011101 D
b100011101 C
b10001110 I
b1000111 H
b1100110001 A
b10110001 N
b101110011010 ?
b100011 L
b100011 G
b11110100010 @
b1011000 M
b10001 F
b101110010 B
b11111010 O
b100011101 >
b100011101 <
b100011101 K
b100011101 .
b100011101 =
b0 0
#18000
b1000000000000 C
b1111000000000000 !
b1111000000000000 D
b10011110101000 I
b1001111010100 H
b11010000010010 A
b11000110010010 N
b100111101010 G
b10000000010011 @
b1100011001001 M
b10011110101 F
b1010110001000 ?
b101000010001 L
b100111 E
1J
b100010111011110 B
b100010101100110 O
b100111101010000 >
b100111101010000 <
b100111101010000 K
b1011000010110000 .
b1011000010110000 =
b1 0
b1 4
b0 2
#20000
b1000000000000 !
b1000000000000 D
b11001000010101 I
b1100100001010 H
b100000100011010 A
b11111010011010 N
b110010000101 G
b10011010010110 @
b1111101001100 M
b11001000010 F
b1100000101110 ?
b110010110111 L
b110010 E
b1000000000000 C
0J
b101100000011110 B
b101011110100110 O
b110010000101011 >
b110010000101011 <
b110010000101011 K
b110010000101011 .
b110010000101011 =
b10 0
b10 4
0-
#22000
b11000000100001 I
b1100000010000 H
b11111010101001 A
b11110000101001 N
b110000001000 G
b10010101011110 @
b1111000010100 M
b11000000100 F
b1011110101111 ?
b110000111000 L
b110000 E
b101010010110011 B
b101010000111011 O
b110000001000011 >
b110000001000011 <
b110000001000011 K
b110000001000011 .
b110000001000011 =
b11 0
b11 4
#24000
b11110001111000 I
b1111000111100 H
b100111000010110 A
b100101110010110 N
b111100011110 G
b10110100010101 @
b10010111001011 M
b11110001111 F
b1101011010001 ?
b111101011010 L
b111100 E
b110101001001011 B
b110100111010011 O
b111100011110001 >
b111100011110001 <
b111100011110001 K
b111100011110001 .
b111100011110001 =
b100 0
b1111000000000000 5
b1 3
b10000000000000 2
#25000
1-
#26000
b1111000101011011 !
b1111000101011011 D
b101111000110 I
b10111100011 H
b1000100110111 A
b111010110111 N
b1011110001 G
b111010100101 @
b11101011011 M
b101111000 F
b111001110011 ?
b1011111100 L
b1011 E
b111010100101 C
1J
b1010100010100 B
b1010010011100 O
b1011110001101 >
b1011110001101 <
b1011110001101 K
b1110100001110011 .
b1110100001110011 =
b101 0
b1111000000000000 5
b10 3
#28000
b1000000000000 C
b1000000000000 !
b1000000000000 D
b10111110101110 I
b1011111010111 H
b11111000011001 A
b11101110011001 N
b101111101011 G
b10010100010110 @
b1110111001100 M
b10111110101 F
b1011110010001 ?
b110000011010 L
b101111 E
0J
b101001111101010 B
b101001101110010 O
b101111101011101 >
b101111101011101 <
b101111101011101 K
b101111101011101 .
b101111101011101 =
b110 0
b1111000110011010 5
b11 3
b111111 2
#30000
b1111111000111010 !
b1111111000111010 D
b11100011 I
b1110001 H
b1110011011 A
b100011011 N
b111000 G
b11111010111 @
b10001101 M
b11100 F
b101110101111 ?
b111000 L
b0 E
b111000110 C
1J
b1000000110 B
b110001110 O
b111000110 >
b111000110 <
b111000110 K
b1111111000111010 .
b1111111000111010 =
b111 0
b100 4
b0 2
0-
#32000
b1111000000000000 !
b1111000000000000 D
b11101001000011 I
b1110100100001 H
b100101101010011 A
b100100011010011 N
b111010010000 G
b10101110110011 @
b10010001101001 M
b11101001000 F
b1101001000001 ?
b111011001010 L
b111010 E
b1000000000000 C
b110011001101111 B
b110010111110111 O
b111010010000111 >
b111010010000111 <
b111010010000111 K
b1000101101111001 .
b1000101101111001 =
b1000 0
b1111111000111100 5
b100 3
b10 2
#34000
b1000000000000 !
b1000000000000 D
b1101001010001 I
b110100101000 H
b10001101100101 A
b10000011100101 N
b11010010100 G
b1011110111100 @
b1000001110010 M
b1101001010 F
b1001000100101 ?
b11010101110 L
b11010 E
b1000000000000 C
0J
b10111010000111 B
b10111000001111 O
b11010010100011 >
b11010010100011 <
b11010010100011 K
b11010010100011 .
b11010010100011 =
b1001 0
b1000000000000 5
b101 3
b10000000000000 2
#35000
1-
#36000
b1111000000000000 !
b1111000000000000 D
b10100010000101 I
b1010001000010 H
b11010100100110 A
b11001010100110 N
b101000100001 G
b10000010011100 @
b1100101010010 M
b10100010000 F
b1010111000000 ?
b101001001001 L
b101000 E
1J
b100011101100001 B
b100011011101001 O
b101000100001010 >
b101000100001010 <
b101000100001010 K
b1010111011110110 .
b1010111011110110 =
b1010 0
b111111110101 5
b110 3
b1011 2
#38000
b1000000000000 !
b1000000000000 D
b1111101010000 I
b111110101000 H
b10100110100100 A
b10011100100100 N
b11111010100 G
b1101011011100 @
b1001110010010 M
b1111101010 F
b1001101101010 ?
b11111110011 L
b11111 E
b1000000000000 C
0J
b11011101000100 B
b11011011001100 O
b11111010100000 >
b11111010100000 <
b11111010100000 K
b11111010100000 .
b11111010100000 =
b1011 0
b1000000000000 5
b111 3
b10000000000000 2
#40000
b1111110111111 I
b111111011111 H
b10101000101110 A
b10011110101110 N
b1001110000101 ?
b100000001110 L
b11111101111 G
b1101100100000 @
b1001111010110 M
b1111110111 F
b11100000001000 B
b11011110010000 O
b11111101111111 >
b11111101111111 <
b11111101111111 K
b11111101111111 .
b11111101111111 =
b1100 0
b1111000000000000 5
b1000 3
0-
#42000
b1011100101010 I
b101110010101 H
b1111101110100 A
b1110011110100 N
b10111001010 G
b1010111000100 @
b111001111010 M
b1011100101 F
b1000101011000 ?
b10111100001 L
b10111 E
b10100100000011 B
b10100010001011 O
b10111001010101 >
b10111001010101 <
b10111001010101 K
b10111001010101 .
b10111001010101 =
b1101 0
b111111111101 5
b1001 3
b11 2
#44000
b1000000000000 C
b1111000000000000 !
b1111000000000000 D
b1011101010101 I
b101110101010 H
b1111110101010 A
b1110100101010 N
b10111010101 G
b1010111011110 @
b111010010100 M
b1011101010 F
b1000101100011 ?
b10111101100 L
b10111 E
1J
b10100101001110 B
b10100011010110 O
b10111010101011 >
b10111010101011 <
b10111010101011 K
b1101000101010101 .
b1101000101010101 =
b1110 0
b111111100111 5
b1010 3
b11001 2
#45000
1-
#46000
b10001110000 C
b10001110000 !
b10001110000 D
b1001000100 I
b100100010 H
b10101010101 A
b1011010101 N
b10010001 G
b100010110100 @
b101101010 M
b1001000 F
b110000001010 ?
b10010011 L
b10 E
0J
b10001110000 B
b1111111000 O
b10010001001 >
b10010001001 <
b10010001001 K
b10010001001 .
b10010001001 =
b1111 0
b1111000000011000 5
b1011 3
b11000 2
#48000
b111010001111 C
b1111000101110001 !
b1111000101110001 D
b110000110000 I
b11000011000 H
b1000110111100 A
b111100111100 N
b1100001100 G
b111011101000 @
b11110011110 M
b110000110 F
b111010001111 ?
b1100011000 L
b1100 E
1J
b1010111001101 B
b1010101010101 O
b1100001100001 >
b1100001100001 <
b1100001100001 K
b1110011110011111 .
b1110011110011111 =
b10000 0
b10001101011 5
b1100 3
b101 2
#50000
b1000000000000 C
b1000000000000 !
b1000000000000 D
b11010101110001 I
b1101010111000 H
b100010101001101 A
b100001011001101 N
b110101011100 G
b10100010110000 @
b10000101100110 M
b11010101110 F
b1100100001000 ?
b110110010001 L
b110101 E
0J
b101110111111110 B
b101110110000110 O
b110101011100010 >
b110101011100010 <
b110101011100010 K
b110101011100010 .
b110101011100010 =
b10001 0
b1111000101110011 5
b1101 3
b10 2
0-
#52000
b1111000000000000 !
b1111000000000000 D
b11011100100100 I
b1101110010010 H
b100011101101101 A
b100010011101101 N
b110111001001 G
b10100111000000 @
b10001001110110 M
b11011100100 F
b1100101110111 ?
b111000000000 L
b110111 E
b1000000000000 C
1J
b110000011111000 B
b110000010000000 O
b110111001001001 >
b110111001001001 <
b110111001001001 K
b1001000110110111 .
b1001000110110111 =
b10010 0
b101 4
b0 2
#54000
b1111101100001 I
b111110110000 H
b10100110111001 A
b10011100111001 N
b11111011000 G
b1101011100110 @
b1001110011100 M
b1111101100 F
b1001101101110 ?
b11111110111 L
b11111 E
b11011101100010 B
b11011011101010 O
b11111011000010 >
b11111011000010 <
b11111011000010 K
b1100000100111110 .
b1100000100111110 =
b10011 0
b1000000000000 5
b1110 3
b10000000000000 2
#55000
1-
#56000
b1111000111111000 !
b1111000111111000 D
b111000001000 C
b101011001010 I
b10101100101 H
b111111111100 A
b110101111100 N
b1010110010 G
b111000001000 @
b11010111110 M
b101011001 F
b111000110011 ?
b1010111100 L
b1010 E
b1001101011011 B
b1001011100011 O
b1010110010101 >
b1010110010101 <
b1010110010101 K
b1110101001101011 .
b1110101001101011 =
b10100 0
b1111000000000011 5
b1111 3
b11 2
#58000
b1000000000000 C
b1000000000000 !
b1000000000000 D
b10111000010100 I
b1011100001010 H
b11110000011001 A
b11100110011001 N
b101110000101 G
b10010000010110 @
b1110011001100 M
b10111000010 F
b1011100101010 ?
b101110110011 L
b101110 E
0J
b101000100011011 B
b101000010100011 O
b101110000101000 >
b101110000101000 <
b101110000101000 K
b101110000101000 .
b101110000101000 =
b10101 0
b1111001000000101 5
b10000 3
b1101 2
#60000
b1111000101000011 !
b1111000101000011 D
b101111101100 I
b10111110110 H
b1000101100111 A
b111011100111 N
b1011111011 G
b111010111101 @
b11101110011 M
b101111101 F
b111001111101 ?
b1100000110 L
b1011 E
b111010111101 C
1J
b1010101010110 B
b1010011011110 O
b1011111011001 >
b1011111011001 <
b1011111011001 K
b1110100000100111 .
b1110100000100111 =
b10110 0
b110 4
b0 2
0-
#62000
b1111000000000000 !
b1111000000000000 D
b11110000111101 I
b1111000011110 H
b100110111001100 A
b100101101001100 N
b111100001111 G
b10110011101111 @
b10010110100101 M
b11110000111 F
b1101011000010 ?
b111101001011 L
b111100 E
b1000000000000 C
b110100111100011 B
b110100101101011 O
b111100001111010 >
b111100001111010 <
b111100001111010 K
b1000011110000110 .
b1000011110000110 =
b10111 0
b1111000110001100 5
b10001 3
b1001001 2
#64000
b1000000000000 !
b1000000000000 D
b11010011001001 I
b1101001100100 H
b100010001111011 A
b100000111111011 N
b110100110010 G
b10100001000111 @
b10000011111101 M
b11010011001 F
b1100011011101 ?
b110101100110 L
b110100 E
b1000000000000 C
0J
b101110011011000 B
b101110001100000 O
b110100110010010 >
b110100110010010 <
b110100110010010 K
b110100110010010 .
b110100110010010 =
b11000 0
b1000000000000 5
b10010 3
b10000000000000 2
#65000
1-
#66000
b1111000000000000 !
b1111000000000000 D
b1000001101110 I
b100000110111 H
b1011100001001 A
b1010010001001 N
b10000011011 G
b1000110001110 @
b101001000100 M
b1000001101 F
b111110100010 ?
b10000101011 L
b10000 E
b1000000000000 C
1J
b1110100111010 B
b1110011000010 O
b10000011011101 >
b10000011011101 <
b10000011011101 K
b1101111100100011 .
b1101111100100011 =
b11001 0
b111 4
b0 2
#68000
b1000000000000 !
b1000000000000 D
b11010000111101 I
b1101000011110 H
b100001111001100 A
b100000101001100 N
b110100001111 G
b10011111101111 @
b10000010100101 M
b11010000111 F
b1100010111010 ?
b110101000011 L
b110100 E
0J
b101101111100011 B
b101101101101011 O
b110100001111010 >
b110100001111010 <
b110100001111010 K
b110100001111010 .
b110100001111010 =
b11010 0
b1111000010000101 5
b10011 3
b10000101 2
#70000
b1111000000000000 !
b1111000000000000 D
b10100001000110 I
b1010000100011 H
b11010011010111 A
b11001001010111 N
b101000010001 G
b10000001110101 @
b1100100101011 M
b10100001000 F
b1010110110000 ?
b101000111001 L
b101000 E
b1000000000000 C
1J
b100011011110100 B
b100011001111100 O
b101000010001101 >
b101000010001101 <
b101000010001101 K
b1010111101110011 .
b1010111101110011 =
b11011 0
b1111000000000000 5
b10100 3
b10000000000000 2
0-
#72000
b111011110011 !
b111011110011 D
b110110111110 I
b11011011111 H
b1001110101101 A
b1000100101101 N
b1101101111 G
b111111100000 @
b100010010110 M
b110110111 F
b111011110011 ?
b1101111100 L
b1101 E
b111011110011 C
0J
b1100010000110 B
b1100000001110 O
b1101101111101 >
b1101101111101 <
b1101101111101 K
b1101101111101 .
b1101101111101 =
b11100 0
b1000 4
b0 2
#74000
b1000000000000 !
b1000000000000 D
b10011110100101 I
b1001111010010 H
b11010000001110 A
b11000110001110 N
b100111101001 G
b10000000010000 @
b1100011000110 M
b10011110100 F
b1010110000111 ?
b101000010000 L
b100111 E
b1000000000000 C
b100010111011001 B
b100010101100001 O
b100111101001010 >
b100111101001010 <
b100111101001010 K
b100111101001010 .
b100111101001010 =
b11101 0
b111100000001 5
b10101 3
b1110 2
#75000
1-
#76000
b10011001101011 I
b1001100110101 H
b11001010000101 A
b11000000000101 N
b100110011010 G
b1111101001100 @
b1100000000010 M
b10011001101 F
b1010100110111 ?
b100111000000 L
b100110 E
b100001110110101 B
b100001100111101 O
b100110011010111 >
b100110011010111 <
b100110011010111 K
b100110011010111 .
b100110011010111 =
b11110 0
b1001 4
b0 2
#78000
b111100001011 !
b111100001011 D
b111000011001 I
b11100001100 H
b1010000011111 A
b1000110011111 N
b1110000110 G
b1000000011001 @
b100011001111 M
b111000011 F
b111100001011 ?
b1110010100 L
b1110 E
b111100001011 C
b1100100100100 B
b1100010101100 O
b1110000110010 >
b1110000110010 <
b1110000110010 K
b1110000110010 .
b1110000110010 =
b11111 0
b111111111111 5
b10110 3
b1 2
#80000
b1000000000000 !
b1000000000000 D
b10010100011111 I
b1001010001111 H
b11000011100110 A
b10111001100110 N
b100101000111 G
b1111001111100 @
b1011100110010 M
b10010100011 F
b1010011100011 ?
b100101101100 L
b100101 E
b1000000000000 C
b100000101101111 B
b100000011110111 O
b100101000111110 >
b100101000111110 <
b100101000111110 K
b100101000111110 .
b100101000111110 =
b100000 0
b111100010101 5
b10111 3
b1010 2
0-
#82000
b1111000000000000 !
b1111000000000000 D
b10111101111110 I
b1011110111111 H
b11110111011101 A
b11101101011101 N
b101111011111 G
b10010011111000 @
b1110110101110 M
b10111101111 F
b1011110000101 ?
b110000001110 L
b101111 E
b1000000000000 C
1J
b101001110010101 B
b101001100011101 O
b101111011111100 >
b101111011111100 <
b101111011111100 K
b1010000100000100 .
b1010000100000100 =
b100001 0
b111111111111 5
b11000 3
b1 2
#84000
b1111000100110100 !
b1111000100110100 D
b110100100001 I
b11010010000 H
b1001011101001 A
b1000001101001 N
b1101001000 G
b111101111110 @
b100000110100 M
b110100100 F
b111011001100 ?
b1101010101 L
b1101 E
b111011001100 C
b1011101110011 B
b1011011111011 O
b1101001000011 >
b1101001000011 <
b1101001000011 K
b1110010110111101 .
b1110010110111101 =
b100010 0
b1010 4
b0 2
#85000
1-
#86000
b1000000000000 C
b1000000000000 !
b1000000000000 D
b11100110000001 I
b1110011000000 H
b100101001100001 A
b100011111100001 N
b111001100000 G
b10101100111010 @
b10001111110000 M
b11100110000 F
b1101000010000 ?
b111010011001 L
b111001 E
0J
b110010100011011 B
b110010010100011 O
b111001100000011 >
b111001100000011 <
b111001100000011 K
b111001100000011 .
b111001100000011 =
b100011 0
b1111000100101000 5
b11001 3
b1100 2
#88000
b1010000111111 I
b101000011111 H
b1101111001110 A
b1100101001110 N
b10100001111 G
b1001111110000 @
b110010100110 M
b1010000111 F
b1000010011010 ?
b10100100011 L
b10100 E
b10001111100111 B
b10001101101111 O
b10100001111110 >
b10100001111110 <
b10100001111110 K
b10100001111110 .
b10100001111110 =
b100100 0
b1011 4
b0 2
#90000
b11101001110011 I
b1110100111001 H
b100101110001111 A
b100100100001111 N
b111010011100 G
b10101111010001 @
b10010010000111 M
b11101001110 F
b1101001001101 ?
b111011010110 L
b111010 E
b110011011000011 B
b110011001001011 O
b111010011100111 >
b111010011100111 <
b111010011100111 K
b111010011100111 .
b111010011100111 =
b100101 0
b111111001100 5
b11010 3
b110100 2
0-
#92000
b1111001000011 I
b111100100001 H
b10100001010011 A
b10010111010011 N
b11110010000 G
b1101000110011 @
b1001011101001 M
b1111001000 F
b1001100100101 ?
b11110101110 L
b11110 E
b11010101101110 B
b11010011110110 O
b11110010000110 >
b11110010000110 <
b11110010000110 K
b11110010000110 .
b11110010000110 =
b100110 0
b1111000000000000 5
b11011 3
b10000000000000 2
#94000
b10000111000110 I
b1000011100011 H
b10110010110111 A
b10101000110111 N
b100001110001 G
b1110001100101 @
b1010100011011 M
b10000111000 F
b1010000001001 ?
b100010010010 L
b100001 E
b11101110010011 B
b11101100011011 O
b100001110001100 >
b100001110001100 <
b100001110001100 K
b100001110001100 .
b100001110001100 =
b100111 0
b111111111100 5
b11100 3
b100 2
#95000
1-
#96000
b10100010101110 I
b1010001010111 H
b11010101011001 A
b11001011011001 N
b101000101011 G
b10000010110110 @
b1100101101100 M
b10100010101 F
b1010111001010 ?
b101001010011 L
b101000 E
b100011110101001 B
b100011100110001 O
b101000101011100 >
b101000101011100 <
b101000101011100 K
b101000101011100 .
b101000101011100 =
b101000 0
b111111111110 5
b11101 3
b10 2
#98000
b1111000000000000 !
b1111000000000000 D
b10111010000011 I
b1011101000001 H
b11110010100011 A
b11101000100011 N
b101110100000 G
b10010001011011 @
b1110100010001 M
b10111010000 F
b1011101000101 ?
b101111001110 L
b101110 E
b1000000000000 C
1J
b101000111011110 B
b101000101100110 O
b101110100000110 >
b101110100000110 <
b101110100000110 K
b1010001011111010 .
b1010001011111010 =
b101001 0
b1100 4
b0 2
#100000
b1000000001010 I
b100000000101 H
b1011010001100 A
b1010000001100 N
b10000000010 G
b1000101010000 @
b101000000110 M
b1000000001 F
b111110001001 ?
b10000010010 L
b10000 E
b1110010001011 B
b1110000010011 O
b10000000010101 >
b10000000010101 <
b10000000010101 K
b1101111111101011 .
b1101111111101011 =
b101010 0
b1000000000000 5
b11110 3
b10000000000000 2
0-
#102000
b1000000000000 !
b1000000000000 D
b10011010101101 I
b1001101010110 H
b11001011011000 A
b11000001011000 N
b100110101011 G
b1111101110101 @
b1100000101011 M
b10011010101 F
b1010101001000 ?
b100111010001 L
b100110 E
0J
b100010000100111 B
b100001110101111 O
b100110101011010 >
b100110101011010 <
b100110101011010 K
b100110101011010 .
b100110101011010 =
b101011 0
b1111000010010010 5
b11111 3
b10010010 2
#104000
b1111000000000000 !
b1111000000000000 D
b1000111111100 I
b100011111110 H
b1100011111011 A
b1011001111011 N
b10001111111 G
b1001010000111 @
b101100111101 M
b1000111111 F
b1000000000111 ?
b10010010000 L
b10001 E
b1000000000000 C
1J
b1111111110010 B
b1111101111010 O
b10001111111001 >
b10001111111001 <
b10001111111001 K
b1101110000000111 .
b1101110000000111 =
b101100 0
b111111111111 5
b100000 3
b1 2
#105000
1-
#106000
b10100000000100 I
b1010000000010 H
b11010010000101 A
b11001000000101 N
b101000000001 G
b10000001001100 @
b1100100000010 M
b10100000000 F
b1010110100000 ?
b101000101001 L
b101000 E
b100011001111111 B
b100011000000111 O
b101000000001000 >
b101000000001000 <
b101000000001000 K
b1010111111111000 .
b1010111111111000 =
b101101 0
b1111000001011010 5
b100001 3
b1011010 2
#108000
b101111100111 !
b101111100111 D
b11110000110 I
b1111000011 H
b101111100111 A
b100101100111 N
b111100001 G
b101111111101 @
b10010110011 M
b11110000 F
b110101011111 ?
b111101000 L
b111 E
b101111100111 C
0J
b110110100011 B
b110100101011 O
b111100001100 >
b111100001100 <
b111100001100 K
b111100001100 .
b111100001100 =
b101110 0
b1101 4
b0 2
#110000
b101000100110 !
b101000100110 D
b101000100110 C
b11000011111 I
b1100001111 H
b101000100110 A
b11110100110 N
b110000111 G
b101100011100 @
b1111010010 M
b11000011 F
b110100000100 ?
b110001101 L
b110 E
b101100110000 B
b101010111000 O
b110000111111 >
b110000111111 <
b110000111111 K
b110000111111 .
b110000111111 =
b101111 0
b101111000100 5
b100010 3
b100011 2
0-
#112000
b1000000000000 !
b1000000000000 D
b11100100000111 I
b1110010000011 H
b100100111001000 A
b100011101001000 N
b111001000001 G
b10101011101101 @
b10001110100011 M
b11100100000 F
b1100111110001 ?
b111001111010 L
b111001 E
b1000000000000 C
b110010001000101 B
b110001111001101 O
b111001000001110 >
b111001000001110 <
b111001000001110 K
b111001000001110 .
b111001000001110 =
b110000 0
b1111000000000000 5
b100011 3
b1101000100110 2
#114000
b1111000000000000 !
b1111000000000000 D
b1100100101111 I
b110010010111 H
b10000111111010 A
b1111101111010 N
b11001001011 G
b1011100000110 @
b111110111100 M
b1100100101 F
b1000111011011 ?
b11001100100 L
b11001 E
b1000000000000 C
1J
b10110010001011 B
b10110000010011 O
b11001001011110 >
b11001001011110 <
b11001001011110 K
b1100110110100010 .
b1100110110100010 =
b110001 0
b1110 4
b0 2
#115000
1-
#116000
b100101000101 C
b100101000101 !
b100101000101 D
b10101101011 I
b1010110101 H
b100101000101 A
b11011000101 N
b101011010 G
b101010101100 @
b1101100010 M
b10101101 F
b110011010110 ?
b101011111 L
b101 E
0J
b100111110101 B
b100101111101 O
b101011010111 >
b101011010111 <
b101011010111 K
b101011010111 .
b101011010111 =
b110010 0
b1111000000001111 5
b100100 3
b1111 2
#118000
b1000000000000 C
b1111000000000000 !
b1111000000000000 D
b10000100010111 I
b1000010001011 H
b10101111011100 A
b10100101011100 N
b100001000101 G
b1101111110111 @
b1010010101101 M
b10000100010 F
b1001111011101 ?
b100001100110 L
b100001 E
1J
b11101001100001 B
b11100111101001 O
b100001000101110 >
b100001000101110 <
b100001000101110 K
b1011110111010010 .
b1011110111010010 =
b110011 0
b100101110000 5
b100101 3
b101011 2
#120000
b1111100001011010 !
b1111100001011010 D
b10000011111 I
b1000001111 H
b11110100110 A
b10100100110 N
b100000111 G
b100111011100 @
b1010010010 M
b10000011 F
b110010000010 ?
b100001011 L
b100 E
b11110100110 C
b11110101111 B
b11100110111 O
b100000111110 >
b100000111110 <
b100000111110 K
b1111011111000010 .
b1111011111000010 =
b110100 0
b1111000000000010 5
b100110 3
b10 2
0-
#122000
b1111000000000000 !
b1111000000000000 D
b11100110110100 I
b1110011011010 H
b100101010100001 A
b100100000100001 N
b111001101101 G
b10101101011010 @
b10010000010000 M
b11100110110 F
b1101000011101 ?
b111010100110 L
b111001 E
b1000000000000 C
b110010101110011 B
b110010011111011 O
b111001101101000 >
b111001101101000 <
b111001101101000 K
b1000110010011000 .
b1000110010011000 =
b110101 0
b1111100001101011 5
b100111 3
b10001 2
#124000
b111011101001 !
b111011101001 D
b110110010100 I
b11011001010 H
b1001101111001 A
b1000011111001 N
b1101100101 G
b111111000110 @
b100001111100 M
b110110010 F
b111011101001 ?
b1101110010 L
b1101 E
b111011101001 C
0J
b1100000111011 B
b1011111000011 O
b1101100101000 >
b1101100101000 <
b1101100101000 K
b1101100101000 .
b1101100101000 =
b110110 0
b1111 4
b0 2
#125000
1-
#126000
b1000000000000 !
b1000000000000 D
b10111110101000 I
b1011111010100 H
b11111000010010 A
b11101110010010 N
b101111101010 G
b10010100010011 @
b1110111001001 M
b10111110101 F
b1011110010000 ?
b110000011001 L
b101111 E
b1000000000000 C
b101001111011110 B
b101001101100110 O
b101111101010000 >
b101111101010000 <
b101111101010000 K
b101111101010000 .
b101111101010000 =
b110111 0
b111011110110 5
b101000 3
b1101 2
#128000
b1000100001100 I
b100010000110 H
b1011111001111 A
b1010101001111 N
b10001000011 G
b1000111110001 @
b101010100111 M
b1000100001 F
b111111001011 ?
b10001010100 L
b10001 E
b1111001001110 B
b1110111010110 O
b10001000011001 >
b10001000011001 <
b10001000011001 K
b10001000011001 .
b10001000011001 =
b111000 0
b10000 4
b0 2
#130000
b1000000000000 C
b1111000000000000 !
b1111000000000000 D
b1110110100000 I
b111011010000 H
b10011110001000 A
b10010100001000 N
b11101101000 G
b1100111001110 @
b1001010000100 M
b1110110100 F
b1001011111100 ?
b11110000101 L
b11101 E
1J
b11010001010000 B
b11001111011000 O
b11101101000000 >
b11101101000000 <
b11101101000000 K
b1100010011000000 .
b1100010011000000 =
b111001 0
b111110001110 5
b101001 3
b1110010 2
0-
#132000
b1110100011001 I
b111010001100 H
b10011011011111 A
b10010001011111 N
b1001011011010 ?
b11101100011 L
b11101000110 G
b1100101111001 @
b1001000101111 M
b1110100011 F
b11001101100100 B
b11001011101100 O
b11101000110010 >
b11101000110010 <
b11101000110010 K
b1100010111001110 .
b1100010111001110 =
b111010 0
b1111000000000101 5
b101010 3
b101 2
#134000
b1011100000010 I
b101110000001 H
b1111101000010 A
b1110011000010 N
b10111000000 G
b1010110101011 @
b111001100001 M
b1011100000 F
b1000101001110 ?
b10111010111 L
b10111 E
b10100010111100 B
b10100001000100 O
b10111000000100 >
b10111000000100 <
b10111000000100 K
b1101000111111100 .
b1101000111111100 =
b111011 0
b1111000000000110 5
b101011 3
b110 2
#135000
1-
#136000
b1000000000000 !
b1000000000000 D
b10110111011001 I
b1011011101100 H
b11101111001111 A
b11100101001111 N
b101101110110 G
b10001111110001 @
b1110010100111 M
b10110111011 F
b1011100011010 ?
b101110100011 L
b101101 E
0J
b101000010110100 B
b101000000111100 O
b101101110110010 >
b101101110110010 <
b101101110110010 K
b101101110110010 .
b101101110110010 =
b111100 0
b1111000000011010 5
b101100 3
b11010 2
#138000
b1111000000000000 !
b1111000000000000 D
b10100100111110 I
b1010010011111 H
b11011000001101 A
b11001110001101 N
b101001001111 G
b10000100010000 @
b1100111000110 M
b10100100111 F
b1010111101111 ?
b101001111000 L
b101001 E
b1000000000000 C
1J
b100100010100101 B
b100100000101101 O
b101001001111100 >
b101001001111100 <
b101001001111100 K
b1010110110000100 .
b1010110110000100 =
b111101 0
b1111000000000000 5
b101101 3
b10000000000000 2
#140000
b10011110100010 I
b1001111010001 H
b11010000001010 A
b11000110001010 N
b100111101000 G
b10000000001111 @
b1100011000101 M
b10011110100 F
b1010110000110 ?
b101000001111 L
b100111 E
b100010111010100 B
b100010101011100 O
b100111101000100 >
b100111101000100 <
b100111101000100 K
b1011000010111100 .
b1011000010111100 =
b111110 0
b10001 4
b0 2
0-
